…
``` r
eggs_laid <- c(800, 1000, 1200)
modified_configs <- vary_param(config_ex_1, from = '__a', to = '__e', 
                               param_name = 'a', values = eggs_laid)
```

This gives us a list of three modified model `config`s, which differ
only in the number of eggs laid.

### Run the model with each new parameter value

``` r
outputs <- run_all_configs(modified_configs)
outputs[[1]]
#> # A tibble: 116 × 6
#>      day stage    pop age_group process infected
#>    <int> <chr>  <dbl> <chr>     <chr>   <lgl>   
#>  1     1 __e        0 e         _       FALSE   
#>  2     1 __l        0 l         _       FALSE   
#>  3     1 __n        0 n         _       FALSE   
#>  4     1 __a     1000 a         _       FALSE   
#>  5     2 __e   800000 e         _       FALSE   
#>  6     2 __l        0 l         _       FALSE   
#>  7     2 __n        0 n         _       FALSE   
#>  8     2 __a        0 a         _       FALSE   
#>  9     3 __e        0 e         _       FALSE   
#> 10     3 __l   800000 l         _       FALSE   
#> # … with 106 more rows
```
…
So far all examples have used transition functions loaded into the
package, here we show how to define our own.

``` r
find_host <- function(x, y, a, pref)
{
  1-(1-a)^sum(x*pref)
}
```

``` r
infect_example_config$transitions
#> # A tibble: 33 × 6
#>    from  to    transition_fun delay pred1    pred2
#>    <chr> <chr> <chr>          <lgl> <chr>    <lgl>
#>  1 __e   q_l   constant_fun   TRUE  <NA>     NA   
#>  2 __e   m     constant_fun   TRUE  <NA>     NA   
#>  3 q_l   f_l   find_host      FALSE host_den NA   
#>  4 q_l   m     constant_fun   FALSE <NA>     NA   
#>  5 f_l   eil   infect_fun     FALSE host_den NA   
#>  6 f_l   eul   infect_fun     FALSE host_den NA   
#>  7 eil   qin   constant_fun   TRUE  <NA>     NA   
#>  8 eil   m     constant_fun   TRUE  <NA>     NA   
#>  9 eul   qun   constant_fun   TRUE  <NA>     NA   
#> 10 eul   m     constant_fun   TRUE  <NA>     NA   
#> # … with 23 more rows
```
…
