…
# model output for `config_ex_1` stays the same

    Code
      run(config_ex_1)
    Output
      # A tibble: 116 x 6
           day stage     pop age_group process infected
         <int> <chr>   <dbl> <chr>     <chr>   <lgl>   
       1     1 __e         0 e         _       FALSE   
       2     1 __l         0 l         _       FALSE   
       3     1 __n         0 n         _       FALSE   
       4     1 __a      1000 a         _       FALSE   
       5     2 __e   1000000 e         _       FALSE   
       6     2 __l         0 l         _       FALSE   
       7     2 __n         0 n         _       FALSE   
       8     2 __a         0 a         _       FALSE   
       9     3 __e         0 e         _       FALSE   
      10     3 __l   1000000 l         _       FALSE   
      # ... with 106 more rows

# model output for `config_ex_2` stays the same

    Code
      run(config_ex_2)
    Output
      [1] "day 100"
      [1] "day 200"
      [1] "day 300"
      # A tibble: 1,460 x 6
           day stage     pop age_group process infected
         <int> <chr>   <dbl> <chr>     <chr>   <lgl>   
       1     1 __e        0  e         _       FALSE   
       2     1 __l        0  l         _       FALSE   
       3     1 __n        0  n         _       FALSE   
       4     1 __a     1000  a         _       FALSE   
       5     2 __e   489304. e         _       FALSE   
       6     2 __l        0  l         _       FALSE   
       7     2 __n        0  n         _       FALSE   
       8     2 __a        0  a         _       FALSE   
       9     3 __e        0  e         _       FALSE   
      10     3 __l   484411. l         _       FALSE   
      # ... with 1,450 more rows
…
# model output for ogden config stays the same

    Code
      run(cfg)
    Output
      [1] "day 100"
      [1] "day 200"
      [1] "day 300"
      # A tibble: 4,380 x 6
           day stage   pop age_group process infected
         <int> <chr> <dbl> <chr>     <chr>   <lgl>   
       1     1 __e       0 e         _       FALSE   
       2     1 e_l       0 l         e       FALSE   
       3     1 e_n       0 n         e       FALSE   
       4     1 a_l       0 l         a       FALSE   
       5     1 a_n       0 n         a       FALSE   
       6     1 h_l       0 l         h       FALSE   
       7     1 q_l       0 l         q       FALSE   
       8     1 e_a       0 a         e       FALSE   
       9     1 r_a       0 a         r       FALSE   
      10     1 a_a       0 a         a       FALSE   
      # ... with 4,370 more rows
